{
  "type": "productCategorySearchPageWsDTO",
  "currentQuery": {
    "query": {
      "value": "1:price-asc"
    },
    "url": "/search?q=1%3Aprice-asc"
  },
  "freeTextSearch": "1",
  "pagination": {
    "currentPage": 1,
    "pageSize": 6,
    "sort": "price-asc",
    "totalPages": 24,
    "totalResults": 142
  },
  "products": [
    {
      "availableForPickup": true,
      "averageRating": 2.5,
      "code": "834955",
      "configurable": false,
      "configuratorType": "",
      "firstVariantImage": "/medias/?context=bWFzdGVyfGltYWdlc3wzMDI0fGltYWdlL2pwZWd8aW1hZ2VzL2gzNy9oYWIvODc5NzMxODAyMTE1MC5qcGd8NjJhZjE5N2Q2MjVmZWE1OGNjZWE0YTRjNWU3NzVhMWNlN2Q3OTRlZGRmZDgyMDBlMTNkNjRhNjMwM2E1MjliYQ",
      "manufacturer": "Kodak",
      "multidimensional": false,
      "name": "ELITE Chrome, ISO <em class=\"search-results-highlight\">100</em>, <em class=\"search-results-highlight\">36</em>-pic, <em class=\"search-results-highlight\">1</em> Pack",
      "price": {
        "currencyIso": "USD",
        "formattedValue": "$7.50",
        "priceType": "BUY",
        "value": 7.5
      },
      "priceRange": {},
      "stock": {
        "isValueRounded": false,
        "stockLevelStatus": "inStock"
      },
      "url": "/Open-Catalogue/Cameras/Camera-Accessories-%26-Supplies/Colour-Films/ELITE-Chrome%2C-ISO-100%2C-36-pic%2C-1-Pack/p/834955",
      "volumePricesFlag": false
    },
    {
      "availableForPickup": true,
      "averageRating": 4.619047619047619,
      "code": "1312564",
      "configurable": false,
      "configuratorType": "",
      "description": "<b>Features:</b><br/>- Useable for AA, AAA and 9V batteries Ni-CD and Ni-MH.<br/>- Charging 2 or 4 batteries at the same time.<br/>- LED indicator for charging.<br/>- Auto Off when batteries are fully charged.",
      "firstVariantImage": "/medias/?context=bWFzdGVyfGltYWdlc3wyNDEyfGltYWdlL2pwZWd8aW1hZ2VzL2g5My9oNGMvODc5NzI5Mzc3MjgzMC5qcGd8NzFlNDNkNGQ2NzdiNmU1NTBkOTQ0NDI2NTRjY2QyZDA4MWE1YTllNmRiMzIwNWFmZmI0ZjcwY2VhNzY0ZjNjZA",
      "manufacturer": "Sweex",
      "multidimensional": false,
      "name": "Battery Charger 4xAA/AAA",
      "price": {
        "currencyIso": "USD",
        "formattedValue": "$7.61",
        "priceType": "BUY",
        "value": 7.61
      },
      "priceRange": {},
      "stock": {
        "isValueRounded": false,
        "stockLevelStatus": "inStock"
      },
      "summary": "Battery Charger 4xAA/AAA",
      "url": "/Open-Catalogue/Components/Power-Supplies/Battery-Chargers/Battery-Charger-4xAA-AAA/p/1312564",
      "volumePricesFlag": false
    },
    {
      "availableForPickup": true,
      "averageRating": 3.3333333333333335,
      "code": "779864",
      "configurable": false,
      "configuratorType": "",
      "description": "<b>Get black and white prints with the convenience of color.</b><br/>Enjoy the creativity and power of black and white images with the convenience of color film processing. PROFESSIONAL BW400CN Film gives you sharp, crisp prints. It is good for all-around use: in bright sunlight and existing low light",
      "firstVariantImage": "/medias/?context=bWFzdGVyfGltYWdlc3wzNjc4fGltYWdlL2pwZWd8aW1hZ2VzL2gxZi9oNGYvODc5NzMxNjM4Mjc1MC5qcGd8MjkwNmUwMjEwZDg0N2M0M2FmNmJmODBiMDVjZmRlYjNjZWY0MWMyYmIzYTE0N2IzMTEwMTcwOWM5ZDIzNzJiZQ",
      "manufacturer": "Kodak",
      "multidimensional": false,
      "name": "PROFESSIONAL BW400CN Film, <em class=\"search-results-highlight\">24</em>",
      "price": {
        "currencyIso": "USD",
        "formattedValue": "$7.95",
        "priceType": "BUY",
        "value": 7.95
      },
      "priceRange": {},
      "stock": {
        "isValueRounded": false,
        "stockLevelStatus": "inStock"
      },
      "summary": "Get black and white prints with the convenience <em class=\"search-results-highlight\">of</em> color.",
      "url": "/Open-Catalogue/Cameras/Camera-Accessories-%26-Supplies/Black-%26-White-Films/PROFESSIONAL-BW400CN-Film%2C-24/p/779864",
      "volumePricesFlag": false
    },
    {
      "availableForPickup": true,
      "averageRating": 3.6666666666666665,
      "code": "137220",
      "configurable": false,
      "configuratorType": "",
      "description": "<br/><br/>Perfect digital picture with a resolution that exceeds 500 lines.<br/><br/>Infinite range of possibilities to edit and share your videos.<br/><br/>Possibility to record up to 50% more in LP mode.<br/><br/>Cleaning Tape: DVM12CLD.<br/><br/>",
      "firstVariantImage": "/medias/?context=bWFzdGVyfGltYWdlc3wyODA4fGltYWdlL2pwZWd8aW1hZ2VzL2g0NC9oZWMvODc5NzI5NDgyMTQwNi5qcGd8YTRmYWUyMzllMzgyNTBiY2ViZjE0MzljNjQ0OWViNzE2ZDM3NzU0NTg1N2ViN2QyNjBhMzc4NTNjMzM2NTZjZA",
      "manufacturer": "Sony",
      "multidimensional": false,
      "name": "Camcordertape <em class=\"search-results-highlight\">DV</em> 60min (<em class=\"search-results-highlight\">2</em>)",
      "price": {
        "currencyIso": "USD",
        "formattedValue": "$8.00",
        "priceType": "BUY",
        "value": 8
      },
      "priceRange": {},
      "stock": {
        "isValueRounded": false,
        "stockLevelStatus": "inStock"
      },
      "summary": "MiniDV Premium Tape - <em class=\"search-results-highlight\">60</em> min. Blister <em class=\"search-results-highlight\">of</em> <em class=\"search-results-highlight\">2</em>. Bringing you exceptional picture quality, great resistance and excellent value for money, MiniDV Premium <em class=\"search-results-highlight\">is</em> <em class=\"search-results-highlight\">an</em> ideal tape for everyday <em class=\"search-results-highlight\">use</em>.",
      "url": "/Open-Catalogue/Cameras/Camera-Accessories-%26-Supplies/Blank-Video-Tapes/Camcordertape-DV-60min-%282%29/p/137220",
      "volumePricesFlag": false
    },
    {
      "availableForPickup": true,
      "averageRating": 4.625,
      "code": "280916",
      "configurable": false,
      "configuratorType": "",
      "description": "Canyon is a growing world standard company that manufactures computer components and peripherals. Canyon products provide top quality, high performance and usability, while offered services and technical support make Canyon products fully customer-orientated.",
      "firstVariantImage": "/medias/?context=bWFzdGVyfGltYWdlc3wxNzkzfGltYWdlL2pwZWd8aW1hZ2VzL2gxNS9oNGEvODc5NzMwNDY1MTgwNi5qcGd8YWQ4Mjk0YmVmMGM4ZTI5YmZhMWM0MDliZDVlNmE4NzgxYWJjODg2NDU2OWVlYzgwZmFhNzM5NmE5YTg5ODVhOQ",
      "manufacturer": "Canyon",
      "multidimensional": false,
      "name": "Web Camera (100KpixelM CMOS, 640X480, USB <em class=\"search-results-highlight\">1.1</em>) Black",
      "price": {
        "currencyIso": "USD",
        "formattedValue": "$8.20",
        "priceType": "BUY",
        "value": 8.2
      },
      "priceRange": {},
      "stock": {
        "isValueRounded": false,
        "stockLevelStatus": "inStock"
      },
      "summary": "100K Webcam with blue LED & Rubber coating WITH CLIP",
      "url": "/Open-Catalogue/Cameras/Webcams/Web-Camera-%28100KpixelM-CMOS%2C-640X480%2C-USB-1-1%29-Black/p/280916",
      "volumePricesFlag": false
    },
    {
      "availableForPickup": true,
      "code": "779848",
      "configurable": false,
      "configuratorType": "",
      "firstVariantImage": "/medias/?context=bWFzdGVyfGltYWdlc3w0MTk1fGltYWdlL2pwZWd8aW1hZ2VzL2hmOS9oMjMvODc5NzMxNjMxNzIxNC5qcGd8ZTUwYjFmYmQxZWY3YmE4NzVmMWY4NTZjZmRhZDg5OTk3M2FiMzgzMTU4ZWI2MTJjMjEwNWQ4NWZjN2NmNTA3ZQ",
      "manufacturer": "Kodak",
      "multidimensional": false,
      "name": "Farbwelt <em class=\"search-results-highlight\">CN</em> <em class=\"search-results-highlight\">135</em>, ISO 200, <em class=\"search-results-highlight\">36</em>-pic, <em class=\"search-results-highlight\">2</em>-Pack",
      "price": {
        "currencyIso": "USD",
        "formattedValue": "$8.50",
        "priceType": "BUY",
        "value": 8.5
      },
      "priceRange": {},
      "stock": {
        "isValueRounded": false,
        "stockLevelStatus": "inStock"
      },
      "url": "/Open-Catalogue/Cameras/Camera-Accessories-%26-Supplies/Colour-Films/Farbwelt-CN-135%2C-ISO-200%2C-36-pic%2C-2-Pack/p/779848",
      "volumePricesFlag": false
    }
  ],
  "sorts": [
    {
      "code": "relevance",
      "name": "Relevance",
      "selected": false
    },
    {
      "code": "topRated",
      "name": "Top Rated",
      "selected": false
    },
    {
      "code": "name-asc",
      "name": "Name (ascending)",
      "selected": false
    },
    {
      "code": "name-desc",
      "name": "Name (descending)",
      "selected": false
    },
    {
      "code": "price-asc",
      "name": "Price (lowest first)",
      "selected": true
    },
    {
      "code": "price-desc",
      "name": "Price (highest first)",
      "selected": false
    }
  ]
}